[
  {
    "identifier": "DCE99C84-75C9-43EB-9DF7-55A299D43E12",
    "title": "The Good Hawk",
    "imagePrefix" : "TGH",
    "tagline": "If everything was taken from you, what would you do to get it back?",
    "synopsis": "Agatha patrols the sea wall with pride, despite those in her clan who question her right to be there. Jaime is a reluctant Angler, full of self-doubt and afraid of the water. After a devastating attack by a horde of warriors from across the sea, the pair must embark on a terrifying journey to a land where forgotten magic and dark secrets lurk in every shadow... Set in a mythical version of Scotland, this epic fantasy adventure is both thrilling and wild, yet rich with humour and compassion.",
    "notes": [],
    "amazonURL": "https://www.amazon.co.uk/Good-Hawk-Shadow-Skye-Book/dp/1406385859",
    "characters": [
      {
        "identifier": "49FF734C-58EE-4803-84E8-0AABCF917191",
        "name": "Agatha",
        "synopsis": "Bold and brave, fifteen-year-old Agatha speaks her mind and doesn’t take no for an answer. She is fiercely loyal to her clan and would do anything to protect them. She is a ‘Hawk’, and patrols the enclave for signs of approaching enemies. Some people treat Agatha differently because she has Down syndrome, but she is determined to prove her worth.",
        "notes": [],
        "isFavorite": false
      },
      {
        "identifier": "CD787250-4055-41B2-B373-26A31D9C760B",
        "name": "Jamie",
        "synopsis": "Fourteen-year-old Jaime is an ‘Angler’ who is forced to spend his days at sea, despite the fact that he suffers from seasickness and is afraid of the creatures that lurk in the water beneath him. He is a kind, sensitive boy, who often feels like he doesn’t fit in. Although marriage is forbidden in his clan, the elders have decreed that he be married to Lileas, a nine-year-old girl from a neighbouring island.",
        "notes": [],
        "isFavorite": false
      },
      {
        "identifier": "2EB508D3-94BF-4CF4-83B2-837DF231EE62",
        "name": "Knútr",
        "synopsis": "Heavily tattooed with long braided hair, Knútr is a Norvegian prince and heir to the throne. He is part of a horde of invaders known as the deamhain, who travel from one island to another, attacking communities and enslaving people. Bloodthirsty and ruthless, Knútr is not to be trusted.",
        "notes": [],
        "isFavorite": false
      },
      {
        "identifier": "F47FB458-5F4D-4FF5-864E-BBB03BAA26EA",
        "name": "Cray",
        "synopsis": "A member of the Bó Riders – a nomadic highland bull-riding tribe who live on the mainland – Cray is a champion fighter and very competent with a spear. He is quick to make friends, although his self-confidence often comes across as arrogance. He is openly gay, which forces other characters to question their own sexuality. He rides and hunts on a bull called Bras.",
        "notes": [],
        "isFavorite": false
      },
      {
        "identifier": "9BC54541-59BD-4DDD-A50B-E51733FD9375",
        "name": "Maistreas Eilionoir",
        "synopsis": "One of the elders of Clann-a-Tuath, Maistreas Eilionoir has been tasked with the well-being and protection of her entire clan. She can be stubborn and dismissive, but underneath her hard exterior she has a kind heart and always puts the interests of her clan first.",
        "notes": [],
        "isFavorite": false
      },
      {
        "identifier": "52E60622-AB85-446D-8524-CD1F0893D400",
        "name": "Nathara",
        "synopsis": "When Nathara was four years old, a mysterious plague devastated her homeland, so her parents locked her in the tallest tower of their castle to protect her. Everyone else fell victim to the plague, so Nathara grew up alone, with only deadly shadow creatures for company. Known as ‘The Mad Queen’ she wields great power, but is also highly unpredictable.",
        "notes": [],
        "isFavorite": false
      }
    ]
  },
  {
    "identifier": "12D4DB47-3CC4-498E-9914-2CD66D60F36E",
    "title": "The Broken Raven",
    "tagline": "In a world of shadows, hope can be found...",
    "imagePrefix" : "TBR",
    "synopsis": "Agatha and Jaime have rescued their clan and returned home to Skye as heroes. But when Agatha uncovers a threat to their people, she unwittingly releases a terrible power that could kill every living thing on the island. Meanwhile, a ship from Norveg sails for the court of King Edmund of Ingland, where a dangerous alliance is forming - one that will soon turn its vengeful eyes to Skye. Sigrid, a girl with an extraordinary memory, will have to risk everything if she and the people of Skye are to survive the gathering shadows...",
    "notes": [],
    "amazonURL": "https://www.amazon.co.uk/Broken-Raven-Shadow-Skye-Book/dp/1406385875/",
    "characters": [
      {
        "identifier": "B60D9FCB-6E5A-418B-87E6-84232990DDDB",
        "name": "Sigrid",
        "synopsis": "Twelve-year-old Sigrid is a feisty Norvegian girl, with a fierce sense of justice. After being sold into slavery by her own mother, Sigrid finds herself chained to the merciless king, Konge Grímr. She has an eidetic memory, meaning if she sees something once, she can remember it forever. On her face, she has a large tattoo of a raven, which looks like its neck has been snapped.",
        "notes": [],
        "isFavorite": false
      },
      {
        "identifier": "7B62899A-FBDE-4942-BEC5-BC0E32E7E6BA",
        "name": "Konge Grímr",
        "synopsis": "The king of Norveg – a brutal dictator who lives in a hollowed-out mountain known as Sterkr Fjall. He enslaves people from other nations and rules with an iron fist, claiming it is the will of their god, Øden. After his nation was attacked – leading to his eyes being torn out by white bats – Konge Grímr is hellbent on revenge.",
        "notes": [],
        "isFavorite": false
      },
      {
        "identifier": "0C6642E1-7710-432D-A8F0-7606085E44E0",
        "name": "The Badhbh",
        "synopsis": "Very little is known about the Badhbh, other than that he used to be an incredibly powerful blood mage, and that he is responsible for creating the shadow creatures known as sgáilean. The Badhbh is riddled with guilt for his previous actions and has lived a life of solitude for many years. He shuns all company and cares for no one.",
        "notes": [],
        "isFavorite": false
      },
      {
        "identifier": "C08AB462-D428-45C6-8E5B-389D2A207871",
        "name": "Catriona",
        "synopsis": "One of the leaders of Clann-na-Bruthaich, Catriona cares only for her own clan’s survival, even if that comes at the expense of her allies. Shrew and manipulative, she is resolute in her convictions and does not shy away from making unpopular decisions.",
        "notes": [],
        "isFavorite": false
      },
      {
        "identifier": "A57DC1DB-F64A-4617-9768-5C3DE6E6AA6F",
        "name": "King Edmund",
        "synopsis": "The current King of Ingland, Edumund is over one hundred years old and has ruled for many decades. He has an unhealthy obsession with meldery – the forging together of different animals to create twisted battle beasts. He plans to live forever, through any means possible.",
        "notes": [],
        "isFavorite": false
      }
    ]
  },
  {
    "identifier": "545EB192-093A-4C1B-BB6C-00507A60461B",
    "title": "The Burning Swift",
    "imagePrefix" : "TBS",
    "tagline": "As old enemies unite, only the most powerful will survive...",
    "synopsis": "News has reached Skye of a vast army approaching from the south, intent on the annihilation of every Scotian. As Jaime risks his life on an ancient and forbidden blood magic, Sigrid returns to the wilds of Ingland in the hope of an alliance. Meanwhile, Agatha is forced on a journey to the very heart of the enemy. With the army marching ever closer, Jaime, Agatha, and Sigrid will need all their courage, cunning and sacrifice to survive the final battle and save the future of Scotia..",
    "notes": [],
    "amazonURL": "https://www.amazon.co.uk/Burning-Swift-Shadow-Skye-Three/dp/1406385883",
    "characters": [
      {
        "identifier": "1B40ABA6-160F-4FF7-8325-F0C4CCBBE235",
        "name": "Lady Beatrice",
        "synopsis": "Wife to King Edmund, Lady Beatrice appears meek and mild-mannered, but there is more to her than meets the eye… She sees everything that is going on in the court of her husband, and has her own ideas about the future of her country. She has a pet pig called Prin who she is very fond of.",
        "notes": [],
        "isFavorite": false
      },
      {
        "identifier": "BCE121F1-85E5-401F-BA13-9D1F5FAC302F",
        "name": "Grey",
        "synopsis": "A vicious wildwolf who has been imprisoned by King Edmund. All Grey wants is to free the rest of her pack and return to their home in the Scotian highlands, but to do that she will be forced to make unexpected allies.",
        "notes": [],
        "isFavorite": false
      },
      {
        "identifier": "D1835EB1-D456-4388-B4F8-5C87451AB6EE",
        "name": "Mal-Rakki",
        "synopsis": "Brother to Konge Grímr, Mal-Rakki fled the palace after a disagreement with the king, and has spent the last ten years in the ice caves in the north. There, he has gathered a rebel army, in the hope that he may one day be able to overthrow his tyrant brother. A socialist at heart, Mal-Rakki believes everyone deserves the chance of a free and happy life.",
        "notes": [],
        "isFavorite": false
      },
      {
        "identifier": "E8B7989B-1D22-42D0-96CF-608A82FF48B3",
        "name": "The uliebheist",
        "synopsis": "Legend has it, the uilebheist lives in the depths of Loch Lomond, but most people believe it to be nothing but a myth. It is described as the largest creature that ever existed, with a long neck, giant wings and hundreds of razer-sharp teeth.",
        "notes": [],
        "isFavorite": false
      },
      {
        "identifier": "B5D62653-4952-494F-BFE9-72B7A1504316",
        "name": "Donal",
        "synopsis": "One of the ‘Wasps’ in Clann-a-Tuath, Donal is a skilled craftsman and mentor to Jaime. He is one of the few people who is not afraid to question the more archaic customs of their clan, although his kind-hearted nature may ultimately be his downfall.",
        "notes": [],
        "isFavorite": false
      }
    ]
  }
]
